[
  {
    "id": 1261,
    "alpha_channel": true,
    "animated": false,
    "height": 61,
    "image_id": "dddccldpy7mhzovqengz",
    "url": "//images.igdb.com/igdb/image/upload/t_thumb/dddccldpy7mhzovqengz.jpg",
    "width": 404
  },
  {
    "id": 89,
    "alpha_channel": true,
    "animated": false,
    "height": 460,
    "image_id": "fdow1kx8atd9kwsryhjs",
    "url": "//images.igdb.com/igdb/image/upload/t_thumb/fdow1kx8atd9kwsryhjs.jpg",
    "width": 500
  },
  {
    "id": 1574,
    "alpha_channel": false,
    "animated": false,
    "height": 263,
    "image_id": "gwy6dwd3rp0ckgj4vqpx",
    "url": "//images.igdb.com/igdb/image/upload/t_thumb/gwy6dwd3rp0ckgj4vqpx.jpg",
    "width": 300
  },
  {
    "id": 943,
    "alpha_channel": true,
    "animated": false,
    "height": 72,
    "image_id": "apiicbbk1cjgwsrtypxl",
    "url": "//images.igdb.com/igdb/image/upload/t_thumb/apiicbbk1cjgwsrtypxl.jpg",
    "width": 418
  },
  {
    "id": 286,
    "alpha_channel": false,
    "animated": false,
    "height": 3015,
    "image_id": "ziqycyajcrnqh8hyibmk",
    "url": "//images.igdb.com/igdb/image/upload/t_thumb/ziqycyajcrnqh8hyibmk.jpg",
    "width": 2000
  },
  {
    "id": 206,
    "alpha_channel": true,
    "animated": false,
    "height": 275,
    "image_id": "s84xfwhavmhchneqxdxs",
    "url": "//images.igdb.com/igdb/image/upload/t_thumb/s84xfwhavmhchneqxdxs.jpg",
    "width": 700
  },
  {
    "id": 1263,
    "alpha_channel": true,
    "animated": false,
    "height": 209,
    "image_id": "olyzlwiib9qqxlfs6twx",
    "url": "//images.igdb.com/igdb/image/upload/t_thumb/olyzlwiib9qqxlfs6twx.jpg",
    "width": 1024
  },
  {
    "id": 219,
    "alpha_channel": false,
    "animated": false,
    "height": 80,
    "image_id": "bwr3ef9kyqpfunyg1kts",
    "url": "//images.igdb.com/igdb/image/upload/t_thumb/bwr3ef9kyqpfunyg1kts.jpg",
    "width": 440
  },
  {
    "id": 36,
    "alpha_channel": true,
    "animated": false,
    "height": 671,
    "image_id": "dvjspyvdishtdwdkabu6",
    "url": "//images.igdb.com/igdb/image/upload/t_thumb/dvjspyvdishtdwdkabu6.jpg",
    "width": 1000
  },
  {
    "id": 274,
    "alpha_channel": false,
    "animated": false,
    "height": 300,
    "image_id": "s7c45vmicmzbmcuhs1up",
    "url": "//images.igdb.com/igdb/image/upload/t_thumb/s7c45vmicmzbmcuhs1up.jpg",
    "width": 300
  },
  {
    "id": 288,
    "alpha_channel": false,
    "animated": false,
    "height": 102,
    "image_id": "eggcvvvqzxnymtkxfim8",
    "url": "//images.igdb.com/igdb/image/upload/t_thumb/eggcvvvqzxnymtkxfim8.jpg",
    "width": 256
  },
  {
    "id": 194,
    "alpha_channel": false,
    "animated": false,
    "height": 584,
    "image_id": "nfdwrfcz3jjgkcpkt8oy",
    "url": "//images.igdb.com/igdb/image/upload/t_thumb/nfdwrfcz3jjgkcpkt8oy.jpg",
    "width": 422
  },
  {
    "id": 16,
    "alpha_channel": true,
    "animated": false,
    "height": 920,
    "image_id": "dltzbeb41jazocfpov9a",
    "url": "//images.igdb.com/igdb/image/upload/t_thumb/dltzbeb41jazocfpov9a.jpg",
    "width": 1000
  },
  {
    "id": 31,
    "alpha_channel": false,
    "animated": false,
    "height": 115,
    "image_id": "i7pmwdmzp21xrceoqmlc",
    "url": "//images.igdb.com/igdb/image/upload/t_thumb/i7pmwdmzp21xrceoqmlc.jpg",
    "width": 503
  },
  {
    "id": 27,
    "alpha_channel": true,
    "animated": false,
    "height": 1024,
    "image_id": "hbil3xrhnp8fdust2juk",
    "url": "//images.igdb.com/igdb/image/upload/t_thumb/hbil3xrhnp8fdust2juk.jpg",
    "width": 3066
  },
  {
    "id": 847,
    "alpha_channel": true,
    "animated": false,
    "height": 247,
    "image_id": "x6col0ttn6wppgjn3tyc",
    "url": "//images.igdb.com/igdb/image/upload/t_thumb/x6col0ttn6wppgjn3tyc.jpg",
    "width": 721
  },
  {
    "id": 72,
    "alpha_channel": true,
    "animated": false,
    "height": 131,
    "image_id": "cuysbuhpfd5dhl5pnrjq",
    "url": "//images.igdb.com/igdb/image/upload/t_thumb/cuysbuhpfd5dhl5pnrjq.jpg",
    "width": 321
  },
  {
    "id": 809,
    "alpha_channel": false,
    "animated": false,
    "height": 454,
    "image_id": "b90ecokoano9mvhgxt5o",
    "url": "//images.igdb.com/igdb/image/upload/t_thumb/b90ecokoano9mvhgxt5o.jpg",
    "width": 605
  },
  {
    "id": 892,
    "alpha_channel": true,
    "animated": false,
    "height": 246,
    "image_id": "tglfbjdfbwjs6twvz6ga",
    "url": "//images.igdb.com/igdb/image/upload/t_thumb/tglfbjdfbwjs6twvz6ga.jpg",
    "width": 1000
  },
  {
    "id": 463,
    "alpha_channel": false,
    "animated": false,
    "height": 375,
    "image_id": "m3mj346jzlrjwhtdven7",
    "url": "//images.igdb.com/igdb/image/upload/t_thumb/m3mj346jzlrjwhtdven7.jpg",
    "width": 450
  },
  {
    "id": 1136,
    "alpha_channel": false,
    "animated": false,
    "height": 155,
    "image_id": "irwmnrvf0hny5wr0ap0d",
    "url": "//images.igdb.com/igdb/image/upload/t_thumb/irwmnrvf0hny5wr0ap0d.jpg",
    "width": 1772
  },
  {
    "id": 176,
    "alpha_channel": false,
    "animated": false,
    "height": 411,
    "image_id": "bdkcmdv9rujnqrumonqt",
    "url": "//images.igdb.com/igdb/image/upload/t_thumb/bdkcmdv9rujnqrumonqt.jpg",
    "width": 940
  },
  {
    "id": 958,
    "alpha_channel": false,
    "animated": false,
    "height": 1024,
    "image_id": "h0w9kj8bwtwa0avrjfgc",
    "url": "//images.igdb.com/igdb/image/upload/t_thumb/h0w9kj8bwtwa0avrjfgc.jpg",
    "width": 789
  },
  {
    "id": 450,
    "alpha_channel": false,
    "animated": false,
    "height": 127,
    "image_id": "pobzcae4758zn2bz3yy1",
    "url": "//images.igdb.com/igdb/image/upload/t_thumb/pobzcae4758zn2bz3yy1.jpg",
    "width": 521
  },
  {
    "id": 445,
    "alpha_channel": true,
    "animated": false,
    "height": 212,
    "image_id": "w63e5lsq8x7a2trotymv",
    "url": "//images.igdb.com/igdb/image/upload/t_thumb/w63e5lsq8x7a2trotymv.jpg",
    "width": 640
  },
  {
    "id": 2118,
    "alpha_channel": true,
    "animated": false,
    "height": 437,
    "image_id": "cl1mu",
    "url": "//images.igdb.com/igdb/image/upload/t_thumb/cl1mu.jpg",
    "width": 1200
  },
  {
    "id": 344,
    "alpha_channel": true,
    "animated": false,
    "height": 426,
    "image_id": "xlo4ksodzjalrer20aki",
    "url": "//images.igdb.com/igdb/image/upload/t_thumb/xlo4ksodzjalrer20aki.jpg",
    "width": 2000
  },
  {
    "id": 82,
    "alpha_channel": false,
    "animated": false,
    "height": 233,
    "image_id": "ilbokq37gwre4gwgklii",
    "url": "//images.igdb.com/igdb/image/upload/t_thumb/ilbokq37gwre4gwgklii.jpg",
    "width": 615
  },
  {
    "id": 15,
    "alpha_channel": true,
    "animated": false,
    "height": 783,
    "image_id": "i9s3h5sqtvzisfwik1za",
    "url": "//images.igdb.com/igdb/image/upload/t_thumb/i9s3h5sqtvzisfwik1za.jpg",
    "width": 783
  },
  {
    "id": 909,
    "alpha_channel": true,
    "animated": false,
    "height": 3000,
    "image_id": "ljte8d4doak68etvocdc",
    "url": "//images.igdb.com/igdb/image/upload/t_thumb/ljte8d4doak68etvocdc.jpg",
    "width": 4000
  },
  {
    "id": 304,
    "alpha_channel": true,
    "animated": false,
    "height": 2000,
    "image_id": "jk86vt5nmxvltqlj4d7d",
    "url": "//images.igdb.com/igdb/image/upload/t_thumb/jk86vt5nmxvltqlj4d7d.jpg",
    "width": 2000
  },
  {
    "id": 60,
    "alpha_channel": true,
    "animated": false,
    "height": 333,
    "image_id": "ktmvlzpc7quw9rjui0qq",
    "url": "//images.igdb.com/igdb/image/upload/t_thumb/ktmvlzpc7quw9rjui0qq.jpg",
    "width": 500
  },
  {
    "id": 121,
    "alpha_channel": false,
    "animated": false,
    "height": 95,
    "image_id": "yqsot4fytthxblnyvcia",
    "url": "//images.igdb.com/igdb/image/upload/t_thumb/yqsot4fytthxblnyvcia.jpg",
    "width": 760
  },
  {
    "id": 6,
    "alpha_channel": true,
    "animated": false,
    "height": 1840,
    "image_id": "wcqgg7udjjtzxjsqfnfi",
    "url": "//images.igdb.com/igdb/image/upload/t_thumb/wcqgg7udjjtzxjsqfnfi.jpg",
    "width": 2000
  },
  {
    "id": 37,
    "alpha_channel": true,
    "animated": false,
    "height": 358,
    "image_id": "aqtxrprtkcftl7m8yn0t",
    "url": "//images.igdb.com/igdb/image/upload/t_thumb/aqtxrprtkcftl7m8yn0t.jpg",
    "width": 500
  },
  {
    "id": 40,
    "alpha_channel": true,
    "animated": false,
    "height": 460,
    "image_id": "ct4fk4ppzrnkdkjlyl67",
    "url": "//images.igdb.com/igdb/image/upload/t_thumb/ct4fk4ppzrnkdkjlyl67.jpg",
    "width": 500
  },
  {
    "id": 384,
    "alpha_channel": false,
    "animated": false,
    "height": 1080,
    "image_id": "bz8dmxxfvmlct04ecmwe",
    "url": "//images.igdb.com/igdb/image/upload/t_thumb/bz8dmxxfvmlct04ecmwe.jpg",
    "width": 1920
  },
  {
    "id": 290,
    "alpha_channel": false,
    "animated": false,
    "height": 358,
    "image_id": "qpejpvhxjtpfub60wpdb",
    "url": "//images.igdb.com/igdb/image/upload/t_thumb/qpejpvhxjtpfub60wpdb.jpg",
    "width": 351
  },
  {
    "id": 1281,
    "alpha_channel": true,
    "animated": false,
    "height": 88,
    "image_id": "m0ihgqz9vrksa4ye7duq",
    "url": "//images.igdb.com/igdb/image/upload/t_thumb/m0ihgqz9vrksa4ye7duq.jpg",
    "width": 231
  },
  {
    "id": 374,
    "alpha_channel": false,
    "animated": false,
    "height": 488,
    "image_id": "srtuszl5jkb0ykhzyt6l",
    "url": "//images.igdb.com/igdb/image/upload/t_thumb/srtuszl5jkb0ykhzyt6l.jpg",
    "width": 2000
  },
  {
    "id": 1212,
    "alpha_channel": true,
    "animated": false,
    "height": 153,
    "image_id": "ta53dpdv0th41u6uqv6q",
    "url": "//images.igdb.com/igdb/image/upload/t_thumb/ta53dpdv0th41u6uqv6q.jpg",
    "width": 773
  },
  {
    "id": 1264,
    "alpha_channel": true,
    "animated": false,
    "height": 61,
    "image_id": "l0rp1hf3tnappazfzz9n",
    "url": "//images.igdb.com/igdb/image/upload/t_thumb/l0rp1hf3tnappazfzz9n.jpg",
    "width": 404
  },
  {
    "id": 1231,
    "alpha_channel": false,
    "animated": false,
    "height": 351,
    "image_id": "g9tnegvapwh3rr78xhjd",
    "url": "//images.igdb.com/igdb/image/upload/t_thumb/g9tnegvapwh3rr78xhjd.jpg",
    "width": 328
  },
  {
    "id": 1568,
    "alpha_channel": false,
    "animated": false,
    "height": 160,
    "image_id": "b0bv0naux50nfsas5yht",
    "url": "//images.igdb.com/igdb/image/upload/t_thumb/b0bv0naux50nfsas5yht.jpg",
    "width": 146
  },
  {
    "id": 43,
    "alpha_channel": true,
    "animated": false,
    "height": 133,
    "image_id": "qabsh3mdevjsww3erojx",
    "url": "//images.igdb.com/igdb/image/upload/t_thumb/qabsh3mdevjsww3erojx.jpg",
    "width": 500
  },
  {
    "id": 297,
    "alpha_channel": false,
    "animated": false,
    "height": 355,
    "image_id": "zygw5xn9bqkvamrfj9pm",
    "url": "//images.igdb.com/igdb/image/upload/t_thumb/zygw5xn9bqkvamrfj9pm.jpg",
    "width": 700
  },
  {
    "id": 240,
    "alpha_channel": true,
    "animated": false,
    "height": 267,
    "image_id": "celrpywjwtnivqxw0y1f",
    "url": "//images.igdb.com/igdb/image/upload/t_thumb/celrpywjwtnivqxw0y1f.jpg",
    "width": 235
  },
  {
    "id": 172,
    "alpha_channel": true,
    "animated": false,
    "height": 547,
    "image_id": "bu9r3zhigouwaywz5mqc",
    "url": "//images.igdb.com/igdb/image/upload/t_thumb/bu9r3zhigouwaywz5mqc.jpg",
    "width": 1920
  },
  {
    "id": 954,
    "alpha_channel": true,
    "animated": false,
    "height": 275,
    "image_id": "sx8dqxm2nkjmdr5aqjv1",
    "url": "//images.igdb.com/igdb/image/upload/t_thumb/sx8dqxm2nkjmdr5aqjv1.jpg",
    "width": 549
  },
  {
    "id": 2613,
    "alpha_channel": false,
    "animated": false,
    "height": 475,
    "image_id": "cl20l",
    "url": "//images.igdb.com/igdb/image/upload/t_thumb/cl20l.jpg",
    "width": 373
  },
  {
    "id": 593,
    "alpha_channel": true,
    "animated": false,
    "height": 158,
    "image_id": "gdmwtbmabnwf6ajcssci",
    "url": "//images.igdb.com/igdb/image/upload/t_thumb/gdmwtbmabnwf6ajcssci.jpg",
    "width": 573
  },
  {
    "id": 968,
    "alpha_channel": false,
    "animated": false,
    "height": 187,
    "image_id": "svplxuxn983cwmohg6w3",
    "url": "//images.igdb.com/igdb/image/upload/t_thumb/svplxuxn983cwmohg6w3.jpg",
    "width": 270
  },
  {
    "id": 1244,
    "alpha_channel": true,
    "animated": false,
    "height": 138,
    "image_id": "vzihco0vqpbr5xqurqbf",
    "url": "//images.igdb.com/igdb/image/upload/t_thumb/vzihco0vqpbr5xqurqbf.jpg",
    "width": 352
  },
  {
    "id": 2635,
    "alpha_channel": false,
    "animated": false,
    "height": 400,
    "image_id": "cl217",
    "url": "//images.igdb.com/igdb/image/upload/t_thumb/cl217.jpg",
    "width": 400
  },
  {
    "id": 1668,
    "alpha_channel": false,
    "animated": false,
    "height": 330,
    "image_id": "nbgp6nfrvm9j7zr5uarc",
    "url": "//images.igdb.com/igdb/image/upload/t_thumb/nbgp6nfrvm9j7zr5uarc.jpg",
    "width": 630
  },
  {
    "id": 2984,
    "alpha_channel": false,
    "animated": false,
    "height": 147,
    "image_id": "cl2aw",
    "url": "//images.igdb.com/igdb/image/upload/t_thumb/cl2aw.jpg",
    "width": 147
  },
  {
    "id": 3082,
    "alpha_channel": true,
    "animated": false,
    "height": 73,
    "image_id": "cl2dm",
    "url": "//images.igdb.com/igdb/image/upload/t_thumb/cl2dm.jpg",
    "width": 220
  },
  {
    "id": 3080,
    "alpha_channel": true,
    "animated": false,
    "height": 1039,
    "image_id": "cl2dk",
    "url": "//images.igdb.com/igdb/image/upload/t_thumb/cl2dk.jpg",
    "width": 1517
  },
  {
    "id": 3218,
    "alpha_channel": true,
    "animated": false,
    "height": 555,
    "image_id": "cl2he",
    "url": "//images.igdb.com/igdb/image/upload/t_thumb/cl2he.jpg",
    "width": 2000
  },
  {
    "id": 875,
    "alpha_channel": false,
    "animated": false,
    "height": 208,
    "image_id": "bjpreh2lvoyzsvhq24r9",
    "url": "//images.igdb.com/igdb/image/upload/t_thumb/bjpreh2lvoyzsvhq24r9.jpg",
    "width": 400
  }
]