Title,Genre,Release,Rating,Age Rating,Platforms,Publishers,Image,ID
Portal,"['Shooter', 'Platform', 'Puzzle']",2007-Oct-09,80,T,"['Linux', 'PC (Microsoft Windows)', 'PlayStation 3', 'Xbox 360', 'Mac', 'Xbox Live Arcade']","['Microsoft Game Studios', 'Valve Corporation']",//images.igdb.com/igdb/image/upload/t_thumb/co1x7d.jpg,71
Portal 2,"['Shooter', 'Platform', 'Puzzle', 'Adventure']",2011-Apr-19,92,E10,"['PC (Microsoft Windows)', 'PlayStation 3', 'Xbox 360', 'Mac']",['Valve Corporation'],//images.igdb.com/igdb/image/upload/t_thumb/co1rs4.jpg,72
Mass Effect,"['Shooter', 'Role-playing (RPG)']",2007-Nov-20,88,M,"['PC (Microsoft Windows)', 'PlayStation 3', 'Xbox 360', 'PlayStation Network']","['BioWare', 'Microsoft Game Studios', 'Electronic Arts', 'Demiurge Studios', 'Edge of Reality', 'BioWare Edmonton']",//images.igdb.com/igdb/image/upload/t_thumb/co1x7o.jpg,73
Mass Effect 2,"['Shooter', 'Role-playing (RPG)', 'Simulator']",2010-Jan-26,95,M,"['PC (Microsoft Windows)', 'PlayStation 3', 'Xbox 360']","['BioWare', 'Electronic Arts', 'BioWare Edmonton', 'BioWare Montreal']",//images.igdb.com/igdb/image/upload/t_thumb/co20ac.jpg,74
Mass Effect 3,"['Shooter', 'Role-playing (RPG)', 'Adventure']",2012-Mar-06,90,M,"['PC (Microsoft Windows)', 'PlayStation 3', 'Xbox 360', 'Wii U']","['BioWare Edmonton', 'Electronic Arts', 'BioWare']",//images.igdb.com/igdb/image/upload/t_thumb/co1x7q.jpg,75
Star Wars: Battlefront,['Shooter'],2004-Sep-20,72,T,"['PC (Microsoft Windows)', 'PlayStation 2', 'Xbox', 'Mac']","['Pandemic Studios', 'LucasArts']",//images.igdb.com/igdb/image/upload/t_thumb/zf0aar4ntmcd0yj09ash.jpg,141
Star Wars: Battlefront II,"['Shooter', 'Adventure']",2005-Oct-31,75,T,"['PC (Microsoft Windows)', 'PlayStation 2', 'Xbox', 'PlayStation Portable']","['Pandemic Studios', 'LucasArts', 'Savage Entertainment', 'Electronic Arts', 'Activision']",//images.igdb.com/igdb/image/upload/t_thumb/co1nsg.jpg,142
Half-Life,"['Shooter', 'Puzzle', 'Adventure']",2013-Jan-25,80,M,"['Linux', 'PC (Microsoft Windows)', 'PlayStation 2', 'Mac']","['Sierra Entertainment', 'Valve Corporation', 'Gearbox Software']",//images.igdb.com/igdb/image/upload/t_thumb/co1tnt.jpg,231
Half-Life 2,['Shooter'],2004-Nov-16,91,M,"['Linux', 'PC (Microsoft Windows)', 'PlayStation 3', 'Xbox', 'Xbox 360', 'Mac', 'Android']","['Sierra Entertainment', 'Valve Corporation', 'NVIDIA Lightspeed Studios']",//images.igdb.com/igdb/image/upload/t_thumb/co1nmw.jpg,233
RollerCoaster Tycoon 3,"['Real Time Strategy (RTS)', 'Simulator', 'Strategy']",2004-Oct-26,83,E,"['PC (Microsoft Windows)', 'Mac', 'iOS']","['Frontier Developments', 'Atari']",//images.igdb.com/igdb/image/upload/t_thumb/co1v8i.jpg,235
RollerCoaster Tycoon,"['Simulator', 'Strategy']",1999-Apr-12,83,E,"['PC (Microsoft Windows)', 'Xbox']","['Chris Sawyer Productions', 'Atari', 'Frontier Developments', 'MicroProse', 'Hasbro Interactive']",//images.igdb.com/igdb/image/upload/t_thumb/l0c7hhzqxchd8mrvudy2.jpg,254
RollerCoaster Tycoon 2,"['Real Time Strategy (RTS)', 'Simulator', 'Strategy']",2002-Oct-15,60,E,['PC (Microsoft Windows)'],"['Chris Sawyer', 'Infogrames', 'Atari']",//images.igdb.com/igdb/image/upload/t_thumb/azaxhoj1vh1kmeihrcet.jpg,331
Borderlands,"['Shooter', 'Role-playing (RPG)']",2009-Oct-20,80,M,"['PC (Microsoft Windows)', 'PlayStation 3', 'Xbox 360', 'Mac']","['2K Games', 'CyberFront', 'Take-Two Interactive', 'Gearbox Software', 'Feral Interactive', 'Shadows in Darkness', 'Demiurge Studios']",//images.igdb.com/igdb/image/upload/t_thumb/co20tx.jpg,498
Call of Duty: Black Ops,['Shooter'],2010-Nov-09,81,M,"['Wii', 'PC (Microsoft Windows)', 'PlayStation 3', 'Xbox 360', 'Nintendo DS']","['Treyarch', 'n-Space', 'Activision', 'Square Enix']",//images.igdb.com/igdb/image/upload/t_thumb/co1wkl.jpg,545
Call of Duty,['Shooter'],2003-Oct-29,86,T,"['PC (Microsoft Windows)', 'PlayStation 3', 'Xbox 360', 'Mac']","['Infinity Ward', 'Activision']",//images.igdb.com/igdb/image/upload/t_thumb/co1o5c.jpg,621
Grand Theft Auto III,"['Shooter', 'Simulator', 'Adventure']",2001-Oct-22,95,M,"['PC (Microsoft Windows)', 'PlayStation 2', 'Xbox', 'Mac', 'Android', 'iOS', 'PlayStation 4']","['DMA Design', 'Rockstar Games', 'Take-Two Interactive', 'Rockstar Vienna']",//images.igdb.com/igdb/image/upload/t_thumb/co1th0.jpg,730
Grand Theft Auto IV,"['Shooter', 'Adventure']",2008-Dec-02,88,M,"['PC (Microsoft Windows)', 'PlayStation 3', 'Xbox 360']","['Rockstar North', 'Rockstar Toronto', 'Rockstar Games', 'Take-Two Interactive']",//images.igdb.com/igdb/image/upload/t_thumb/co1tgx.jpg,731
Grand Theft Auto 2,['Shooter'],1999-Oct-22,70,M,"['PC (Microsoft Windows)', 'PlayStation', 'Game Boy Color', 'Dreamcast']","['Rockstar Games', 'DMA Design', 'Tarantula Studios', 'Take-Two Interactive']",//images.igdb.com/igdb/image/upload/t_thumb/co1nxu.jpg,819
Call of Duty 3,['Shooter'],2006-Nov-07,73,Sixteen,"['Wii', 'PlayStation 2', 'PlayStation 3', 'Xbox', 'Xbox 360']","['Activision', 'Treyarch', 'Exact Entertainment']",//images.igdb.com/igdb/image/upload/t_thumb/co1wku.jpg,949
Grand Theft Auto,"['Shooter', 'Adventure']",1997-Oct-21,80,M,"['PC (Microsoft Windows)', 'PlayStation', 'PC DOS']","['DMA Design', 'Take-Two Interactive', 'BMG Interactive', 'Visual Science', 'ASC Games', 'Syscom Entertainment', 'Rockstar Games']",//images.igdb.com/igdb/image/upload/t_thumb/co1wxl.jpg,980
Halo 2,['Shooter'],2004-Nov-09,80,M,"['PC (Microsoft Windows)', 'Xbox', 'Xbox One']","['Bungie', 'Microsoft Game Studios', 'Pi Studios', 'Microsoft Game Studios']",//images.igdb.com/igdb/image/upload/t_thumb/co1x77.jpg,986
Halo 3,['Shooter'],2007-Sep-25,100,M,"['Xbox 360', 'Xbox One']","['Bungie', 'Microsoft Game Studios']",//images.igdb.com/igdb/image/upload/t_thumb/co1xhc.jpg,987
Halo 3: ODST,['Shooter'],2009-Sep-22,75,M,['Xbox 360'],"['Bungie', 'Microsoft Game Studios']",//images.igdb.com/igdb/image/upload/t_thumb/co1xhh.jpg,989
Halo 4,['Shooter'],2012-Nov-06,88,M,"['Xbox 360', 'Xbox One']","['343 Industries', 'Microsoft Studios']",//images.igdb.com/igdb/image/upload/t_thumb/co1xhf.jpg,991
Borderlands 2,"['Shooter', 'Role-playing (RPG)']",2012-Sep-18,80,M,"['Linux', 'PC (Microsoft Windows)', 'PlayStation 3', 'Xbox 360', 'Mac', 'Android', 'PlayStation Vita', 'PlayStation 4']","['Gearbox Software', '2K Games', 'SCEA - duplicate', 'Iron Galaxy Studios', 'Aspyr Media']",//images.igdb.com/igdb/image/upload/t_thumb/co20tn.jpg,1011
Grand Theft Auto V,"['Shooter', 'Adventure']",2014-Nov-18,95,M,"['PC (Microsoft Windows)', 'PlayStation 3', 'Xbox 360', 'PlayStation 4', 'Xbox One']","['Rockstar North', 'Rockstar Games', 'Take-Two Interactive']",//images.igdb.com/igdb/image/upload/t_thumb/co1tgt.jpg,1020
Call of Duty: Black Ops II,['Shooter'],2012-Nov-12,78,M,"['PC (Microsoft Windows)', 'PlayStation 3', 'Xbox 360', 'Wii U']","['Treyarch', 'Activision', 'Square Enix']",//images.igdb.com/igdb/image/upload/t_thumb/co1wkv.jpg,1122
Pokémon Pearl,"['Role-playing (RPG)', 'Turn-based strategy (TBS)', 'Adventure']",2006-Sep-28,n/a,E,['Nintendo DS'],"['Nintendo', 'Game Freak']",//images.igdb.com/igdb/image/upload/t_thumb/co1zio.jpg,1518
Pokémon Gold,"['Role-playing (RPG)', 'Turn-based strategy (TBS)', 'Adventure']",2000-Oct-15,87,E,"['Game Boy Color', 'Nintendo 3DS', 'Virtual Console (Nintendo)']","['Nintendo', 'Game Freak']",//images.igdb.com/igdb/image/upload/t_thumb/co1zhv.jpg,1558
Pokémon FireRed,"['Role-playing (RPG)', 'Turn-based strategy (TBS)', 'Adventure']",2004-Jan-29,n/a,E,['Game Boy Advance'],"['Nintendo', 'Game Freak']",//images.igdb.com/igdb/image/upload/t_thumb/co1ziq.jpg,1559
Pokémon Red,"['Role-playing (RPG)', 'Adventure']",1998-Sep-28,75,E,"['Game Boy', 'Nintendo 3DS', 'Virtual Console (Nintendo)']","['Game Freak', 'Nintendo']",//images.igdb.com/igdb/image/upload/t_thumb/co1zhl.jpg,1561
The Witcher 3: Wild Hunt,"['Role-playing (RPG)', 'Adventure']",2015-May-19,91,M,"['PC (Microsoft Windows)', 'PlayStation 4', 'Xbox One']","['WB Games', 'Bandai Namco Entertainment', 'cdp.pl', '1C Company', 'Spike ChunSoft', 'CD Projekt RED', 'D3T Limited']",//images.igdb.com/igdb/image/upload/t_thumb/co1wyy.jpg,1942
Call of Duty: Ghosts,['Shooter'],2013-Nov-05,73,M,"['PC (Microsoft Windows)', 'PlayStation 3', 'Xbox 360', 'Wii U', 'PlayStation 4', 'Xbox One']","['Neversoft Entertainment', 'Activision', 'Infinity Ward', 'Raven Software', 'Treyarch', 'Certain Affinity']",//images.igdb.com/igdb/image/upload/t_thumb/co1rc6.jpg,2033
Dark Souls,"['Role-playing (RPG)', ""Hack and slash/Beat 'em up"", 'Adventure']",2011-Sep-22,90,M,"['PC (Microsoft Windows)', 'PlayStation 3', 'Xbox 360']","['FromSoftware', 'Bandai Namco Entertainment']",//images.igdb.com/igdb/image/upload/t_thumb/co1x78.jpg,2155
Dark Souls II,"['Role-playing (RPG)', 'Adventure']",2014-Mar-11,90,T,"['PC (Microsoft Windows)', 'PlayStation 3', 'Xbox 360']","['FromSoftware', 'Bandai Namco Entertainment']",//images.igdb.com/igdb/image/upload/t_thumb/co1vuy.jpg,2368
Animal Crossing: Wild World,"['Simulator', 'Adventure']",2005-Dec-05,75,E,"['Nintendo DS', 'Wii U']","['Nintendo', 'Nintendo EAD Group No. 2']",//images.igdb.com/igdb/image/upload/t_thumb/co1od0.jpg,2645
Animal Crossing,['Simulator'],2001-Dec-14,80,E,['Nintendo GameCube'],"['Nintendo', 'Nintendo EAD']",//images.igdb.com/igdb/image/upload/t_thumb/co1nyn.jpg,2655
Animal Crossing: New Leaf,['Simulator'],2013-Jun-09,88,E,['Nintendo 3DS'],"['Nintendo', 'Nintendo EAD Group No. 2']",//images.igdb.com/igdb/image/upload/t_thumb/co1oan.jpg,2687
Animal Crossing: City Folk,['Simulator'],2008-Nov-16,69,E,['Wii'],"['Nintendo', 'Nintendo EAD Group No. 2']",//images.igdb.com/igdb/image/upload/t_thumb/co1ocz.jpg,2688
Cooking Mama 3: Shop & Chop,['Simulator'],2009-Oct-20,70,E,['Nintendo DS'],"['Taito Corporation', 'Majesco Entertainment', '505 Games']",//images.igdb.com/igdb/image/upload/t_thumb/co1zv9.jpg,3065
Halo 5: Guardians,['Shooter'],2015-Oct-27,84,T,['Xbox One'],"['343 Industries', 'Microsoft Studios']",//images.igdb.com/igdb/image/upload/t_thumb/co1xhg.jpg,6803
Halo: The Master Chief Collection,['Shooter'],2014-Nov-11,86,M,"['PC (Microsoft Windows)', 'Xbox One']","['343 Industries', 'Certain Affinity', 'Saber Interactive', 'United Front Games', 'Ruffian Games', 'Splash Damage', 'Xbox Game Studios', 'Splash Damage', 'Blur Studio']",//images.igdb.com/igdb/image/upload/t_thumb/co1t95.jpg,7348
Pokémon Black Version 2,"['Role-playing (RPG)', 'Turn-based strategy (TBS)', 'Adventure']",2012-Jun-23,82,E,['Nintendo DS'],"['Game Freak', 'Nintendo', 'The Pokémon Company']",//images.igdb.com/igdb/image/upload/t_thumb/co1z8d.jpg,8284
Call of Duty: Black Ops III,"['Shooter', 'Adventure']",2015-Nov-06,76,M,"['PC (Microsoft Windows)', 'PlayStation 3', 'Mac', 'PlayStation 4', 'Xbox One']","['Activision', 'Treyarch']",//images.igdb.com/igdb/image/upload/t_thumb/co20yw.jpg,9509
Dark Souls III,"['Role-playing (RPG)', 'Adventure']",2016-Apr-12,86,M,"['PC (Microsoft Windows)', 'PlayStation 4', 'Xbox One']","['Bandai Namco Entertainment', 'FromSoftware']",//images.igdb.com/igdb/image/upload/t_thumb/co1vcf.jpg,11133
Cooking Mama 5: Bon Appétit!,['Simulator'],2013-Nov-21,60,E,['Nintendo 3DS'],"['Office Create', 'Cooking Mama Limited', 'Majesco Entertainment', 'Nintendo']",//images.igdb.com/igdb/image/upload/t_thumb/ontfqfdfpqo2xyif8hvv.jpg,11360
Borderlands 3,['Shooter'],2019-Sep-13,81,M,"['PC (Microsoft Windows)', 'PlayStation 4', 'Xbox One', 'Google Stadia']","['2K Games', 'Gearbox Software']",//images.igdb.com/igdb/image/upload/t_thumb/co20r3.jpg,19164
Star Wars Battlefront II,"['Shooter', 'Adventure']",2017-Nov-17,71,T,"['PC (Microsoft Windows)', 'PlayStation 4', 'Xbox One']","['EA Digital Illusions CE', 'Criterion Games', 'Electronic Arts', 'Motive Studios']",//images.igdb.com/igdb/image/upload/t_thumb/co20uw.jpg,26401
Animal Crossing: New Horizons,['Simulator'],2020-Mar-20,91,RP,['Nintendo Switch'],['Nintendo'],//images.igdb.com/igdb/image/upload/t_thumb/co1we3.jpg,109462
Call Of Duty: Modern Warfare,['Shooter'],2019-Oct-25,78,M,"['PC (Microsoft Windows)', 'PlayStation 4', 'Xbox One']","['Infinity Ward', 'Activision']",//images.igdb.com/igdb/image/upload/t_thumb/co1rsg.jpg,119177