Title,Start Date,Website,Parent Company,Description,Logo,Game Titles,Game Platforms, ID
Iron Galaxy Studios,2008-08-14,['http://irongalaxystudios.com/'],N/A,"Iron Galaxy is a Chicago based game development studio founded by industry veterans who have worked closely for years.   Each of our team members average over eleven years experience in various senior roles with a gameography that boasts published titles on every major gaming console since the original Sony PlayStation.  With a focus on big console technology including the Xbox 360 and Playstation3, our clients and partners rely on Iron Galaxy’s expertise and track record to execute on their most trusted brands.",//images.igdb.com/igdb/image/upload/t_thumb/bz8dmxxfvmlct04ecmwe.jpg,[],[],2121
United Front Games,2007-12-30,['http://www.unitedfrontgames.com/'],N/A,"United Front Games is an independent game development studio in Vancouver, Canada.",//images.igdb.com/igdb/image/upload/t_thumb/h0w9kj8bwtwa0avrjfgc.jpg,[],[],823
SCEA - duplicate,N/A,N/A,N/A,N/A,N/A,['Borderlands 2'],"['Linux', 'PC (Microsoft Windows)', 'PlayStation 3', 'Xbox 360', 'Mac', 'Android', 'PlayStation Vita', 'PlayStation 4']",3753
Edge of Reality,1998-12-30,['http://www.edgeofreality.com/'],N/A,"Edge of Reality is an American video game developer founded in 1998 and based in Austin, Texas that has developed video games for the Nintendo 64, Nintendo GameCube, PlayStation 2 and Xbox game consoles. It also has games in development for PlayStation 3 and Xbox 360 games consoles. Edge of Reality is an independent developer and therefore can work with any publisher and for any system. The company has two development teams, one of which works on licenses and established franchises, and the other works on completely original games. The company only develops two games at a time, one with each studio, feeling that ""anything more than that would jeopardize our focus, and therefore the quality of our studio""Edge of Reality was founded in 1998 by Rob Cohen, the lead programmer of Turok: Dinosaur Hunter at Iguana Entertainment and Mike Panoff from Paradigm Entertainment. The company started by developing Nintendo 64 ports of successful games on other systems, including the Tony Hawk's Pro Skater series. Following the stability provided by the success of the ports, the company then branched out into developing its own original games on multiple platforms, including Pitfall: The Lost Expedition and Loadout.",//images.igdb.com/igdb/image/upload/t_thumb/svplxuxn983cwmohg6w3.jpg,[],[],223
BioWare Montreal,2009-02-28,['http://www.bioware.com/en/studios/bioware-montreal/'],BioWare,"Formed in 2009, BioWare Montreal went through a carefully managed growth process that allowed BioWare to develop the unique culture that BioWare is known for. BioWare Montreal assisted BioWare Edmonton with the Mass Effect series, by developing the downloadable content for the series. They would later become the main developer of Mass Effect: Andromeda.",//images.igdb.com/igdb/image/upload/t_thumb/olyzlwiib9qqxlfs6twx.jpg,[],[],3903
Syscom Entertainment,N/A,N/A,N/A,N/A,N/A,['Grand Theft Auto'],"['PC (Microsoft Windows)', 'PlayStation', 'PC DOS']",10560
Savage Entertainment,1997-12-30,N/A,N/A,N/A,//images.igdb.com/igdb/image/upload/t_thumb/eggcvvvqzxnymtkxfim8.jpg,['Star Wars: Battlefront II'],"['PC (Microsoft Windows)', 'PlayStation 2', 'Xbox', 'PlayStation Portable']",64
Taito Corporation,N/A,N/A,N/A,N/A,N/A,['Cooking Mama 3: Shop & Chop'],['Nintendo DS'],1440
cdp.pl,1994-12-30,N/A,N/A,N/A,//images.igdb.com/igdb/image/upload/t_thumb/cl2dm.jpg,['The Witcher 3: Wild Hunt'],"['PC (Microsoft Windows)', 'PlayStation 4', 'Xbox One']",3119
Office Create,N/A,N/A,N/A,N/A,N/A,['Cooking Mama 5: Bon Appétit!'],['Nintendo 3DS'],1438
Motive Studios,2015-06-30,['https://www.ea.com/motivestudios/'],Electronic Arts,N/A,//images.igdb.com/igdb/image/upload/t_thumb/ta53dpdv0th41u6uqv6q.jpg,N/A,N/A,12478
Chris Sawyer,N/A,N/A,N/A,N/A,N/A,['RollerCoaster Tycoon 2'],['PC (Microsoft Windows)'],369
Game Freak,1989-04-25,['http://www.gamefreak.co.jp/'],N/A,N/A,//images.igdb.com/igdb/image/upload/t_thumb/b90ecokoano9mvhgxt5o.jpg,"['Pokémon Pearl', 'Pokémon Gold', 'Pokémon FireRed', 'Pokémon Red', 'Pokémon Black Version 2']","['Nintendo DS', 'Game Boy Color', 'Game Boy Advance', 'Game Boy', 'Nintendo 3DS', 'Virtual Console (Nintendo)']",1617
Rockstar Toronto,2002-12-30,['http://www.rockstartoronto.com/'],Rockstar Games,N/A,//images.igdb.com/igdb/image/upload/t_thumb/ct4fk4ppzrnkdkjlyl67.jpg,['Grand Theft Auto IV'],"['PC (Microsoft Windows)', 'PlayStation 3', 'Xbox 360']",306
343 Industries,2007-06-30,"['https://www.halowaypoint.com/en-US/', 'https://www.343industries.com/']",Xbox Game Studios,N/A,//images.igdb.com/igdb/image/upload/t_thumb/cl1mu.jpg,"['Halo 4', 'Halo 5: Guardians', 'Halo: The Master Chief Collection']","['PC (Microsoft Windows)', 'Xbox 360', 'Xbox One']",722
Saber Interactive,2000-12-30,['http://www.saber3d.com/'],N/A,"Saber Interactive is one of the world’s leading independent game studios. Founded in 2000, Saber has grown into one of the largest and longest-standing providers of interactive games in Russia/Eastern Europe and one of the few remaining independent game studios producing AAA content.Saber has divisions dedicated to video gaming technology, game content and casino gaming. Saber has extensive expertise in developing high-quality art and technology for some of the world's most popular video games including recent contributions to the Halo franchise. Our goal is to focus on extremely high quality experiences that rival the best in the industry.",//images.igdb.com/igdb/image/upload/t_thumb/x6col0ttn6wppgjn3tyc.jpg,[],[],946
Blur Studio,N/A,N/A,N/A,N/A,N/A,N/A,N/A,3246
ASC Games,N/A,N/A,N/A,N/A,N/A,['Grand Theft Auto'],"['PC (Microsoft Windows)', 'PlayStation', 'PC DOS']",704
Exact Entertainment,N/A,N/A,N/A,N/A,N/A,['Call of Duty 3'],"['Wii', 'PlayStation 2', 'PlayStation 3', 'Xbox', 'Xbox 360']",4176
The Pokémon Company,1998-12-30,['http://www.pokemon.com/us/'],Nintendo,N/A,//images.igdb.com/igdb/image/upload/t_thumb/bwr3ef9kyqpfunyg1kts.jpg,['Pokémon Black Version 2'],['Nintendo DS'],1074
Splash Damage,2001-04-30,['http://www.splashdamage.com/'],N/A,N/A,//images.igdb.com/igdb/image/upload/t_thumb/jk86vt5nmxvltqlj4d7d.jpg,[],[],221
Shadows in Darkness,N/A,N/A,N/A,N/A,N/A,N/A,N/A,166
DMA Design,1988-12-30,N/A,N/A,N/A,//images.igdb.com/igdb/image/upload/t_thumb/celrpywjwtnivqxw0y1f.jpg,"['Grand Theft Auto III', 'Grand Theft Auto 2', 'Grand Theft Auto']","['PC (Microsoft Windows)', 'PlayStation', 'PlayStation 2', 'Xbox', 'PC DOS', 'Mac', 'Game Boy Color', 'Dreamcast', 'Android', 'iOS', 'PlayStation 4']",536
n-Space,1994-12-30,['http://www.n-space.com/'],N/A,N/A,//images.igdb.com/igdb/image/upload/t_thumb/qpejpvhxjtpfub60wpdb.jpg,['Call of Duty: Black Ops'],"['Wii', 'PC (Microsoft Windows)', 'PlayStation 3', 'Xbox 360', 'Nintendo DS']",319
Rockstar Vienna,1993-01-03,N/A,Rockstar Games,N/A,//images.igdb.com/igdb/image/upload/t_thumb/fdow1kx8atd9kwsryhjs.jpg,N/A,N/A,307
Treyarch,1996-12-30,['http://www.treyarch.com/'],Activision,N/A,//images.igdb.com/igdb/image/upload/t_thumb/s7c45vmicmzbmcuhs1up.jpg,"['Call of Duty: Black Ops', 'Call of Duty 3', 'Call of Duty: Black Ops II', 'Call of Duty: Ghosts', 'Call of Duty: Black Ops III']","['Wii', 'PC (Microsoft Windows)', 'PlayStation 2', 'PlayStation 3', 'Xbox', 'Xbox 360', 'Mac', 'Nintendo DS', 'Wii U', 'PlayStation 4', 'Xbox One']",428
Xbox Game Studios,2019-02-04,N/A,Microsoft,N/A,N/A,['Halo: The Master Chief Collection'],"['PC (Microsoft Windows)', 'Xbox One']",17966
Visual Science,2003-12-30,N/A,N/A,N/A,//images.igdb.com/igdb/image/upload/t_thumb/cl2aw.jpg,[],[],662
Tarantula Studios,N/A,N/A,N/A,N/A,N/A,[],[],266
BMG Interactive,N/A,N/A,N/A,N/A,N/A,['Grand Theft Auto'],"['PC (Microsoft Windows)', 'PlayStation', 'PC DOS']",703
Chris Sawyer Productions,N/A,N/A,N/A,N/A,N/A,['RollerCoaster Tycoon'],"['PC (Microsoft Windows)', 'Xbox']",8532
BioWare,1995-01-31,['http://www.bioware.com'],Electronic Arts,"BioWare develops high-quality console, PC, and online role-playing games focused on rich stories, unforgettable characters, and vast worlds to discover. Since 1995, BioWare has created some of the world's most critically acclaimed titles, including Baldur's Gate™, Neverwinter Nights™, Star Wars ™: Knights of the Old Republic™, Jade Empire™, Mass Effect™, and Dragon Age™. BioWare operates in Edmonton (Alberta, Canada), Montreal (Quebec, Canada), and Austin (Texas, United States). In 2008, BioWare was acquired by Electronic Arts, a leading global interactive entertainment publisher. After the retirement of the two remaining BioWare co-founders, Ray Muzyka and Greg Zeschuk, Matthew Bromberg became the current group general manager of the BioWare label. The BioWare group consists of following studios: BioWare Edmonton 
The original BioWare studio, it is responsible for most of the games released under the BioWare label, including Star Wars: Knights of the Old Republic, and the ongoing Dragon Age series and the original Mass Effect trilogy. BioWare Montreal 
Formed in March 2009 to assist the Edmonton studio as necessary. Lead the development of DLC for the Mass Effect series as well as Mass Effect: Andromeda. BioWare Austin 
Formed in March 2006 specifically to develop Star Wars: The Old Republic (with assistance from BioWare Edmonton). BioWare Austin later began working on a new IP called Shadow Realms, but production was shelved in February 2015 in order to focus on the continuing production of Dragon Age: Inquisition and Star Wars: The Old Republic.",//images.igdb.com/igdb/image/upload/t_thumb/dddccldpy7mhzovqengz.jpg,"['Mass Effect', 'Mass Effect 2', 'Mass Effect 3']","['PC (Microsoft Windows)', 'PlayStation 3', 'Xbox 360', 'Wii U', 'PlayStation Network']",2
Majesco Entertainment,1986-12-30,['http://www.majescoent.com/'],N/A,N/A,//images.igdb.com/igdb/image/upload/t_thumb/m0ihgqz9vrksa4ye7duq.jpg,"['Cooking Mama 3: Shop & Chop', 'Cooking Mama 5: Bon Appétit!']","['Nintendo DS', 'Nintendo 3DS']",700
Frontier Developments,1993-12-31,['http://www.frontier.co.uk/'],N/A,N/A,//images.igdb.com/igdb/image/upload/t_thumb/zygw5xn9bqkvamrfj9pm.jpg,"['RollerCoaster Tycoon 3', 'RollerCoaster Tycoon']","['PC (Microsoft Windows)', 'Xbox', 'Mac', 'iOS']",208
EA Digital Illusions CE,2006-12-30,['http://dice.se'],Electronic Arts,"Founded in 1992 by four friends from the Amiga demo scene, DICE (then Digital Illusions) created the cult hit Pinball Dreams for the Amiga. Ten years later, the pivotal Battlefield 1942 would change the future of online gaming and DICE forever. Today, the studio develops Battlefield, Mirror’s Edge and Star Wars Battlefront games. And we are just getting warmed up.",//images.igdb.com/igdb/image/upload/t_thumb/srtuszl5jkb0ykhzyt6l.jpg,['Star Wars Battlefront II'],"['PC (Microsoft Windows)', 'PlayStation 4', 'Xbox One']",94
Neversoft Entertainment,1994-06-30,N/A,Activision,N/A,//images.igdb.com/igdb/image/upload/t_thumb/cuysbuhpfd5dhl5pnrjq.jpg,['Call of Duty: Ghosts'],"['PC (Microsoft Windows)', 'PlayStation 3', 'Xbox 360', 'Wii U', 'PlayStation 4', 'Xbox One']",90
MicroProse,1982-12-30,['http://www.microprose.com/'],N/A,N/A,//images.igdb.com/igdb/image/upload/t_thumb/xlo4ksodzjalrer20aki.jpg,['RollerCoaster Tycoon'],"['PC (Microsoft Windows)', 'Xbox']",152
Spike ChunSoft,2012-03-31,['http://www.spike-chunsoft.co.jp/'],N/A,"Spike Chunsoft was established in April 2012 by a merger of two renowned video game developers/publishers, Spike Co. Ltd. and Chunsoft Co., Ltd.",['The Witcher 3: Wild Hunt'],"['PC (Microsoft Windows)', 'PlayStation 4', 'Xbox One']",1217
Rockstar North,2002-12-30,['http://www.rockstarnorth.com/'],Rockstar Games,"Rockstar North was founded in 1988 under the name DMA Design, they are a British video game developer based in Scotland. They are best known for creating the Grand Theft auto franchise and Lemmings franchise. Since 1999 they have been part of Rockstar Games which is owned by Take-Two Interactive. It was not before 2002 that they went trough a name shift and ended up on being called Rockstar North.",//images.igdb.com/igdb/image/upload/t_thumb/dltzbeb41jazocfpov9a.jpg,"['Grand Theft Auto IV', 'Grand Theft Auto V']","['PC (Microsoft Windows)', 'PlayStation 3', 'Xbox 360', 'PlayStation 4', 'Xbox One']",365
D3T Limited,2011-07-11,['https://d3tltd.com/'],Keywords Studios,N/A,//images.igdb.com/igdb/image/upload/t_thumb/gwy6dwd3rp0ckgj4vqpx.jpg,[],[],5696
BioWare Edmonton,1995-01-31,['http://www.bioware.com/en/studios/bioware-edmonton/'],BioWare,"BioWare Edmonton is the original BioWare studio that was established in the early 1995 by Ray Muzyka, Greg Zeschuk, and Augustine Yip. Known for many games such as Baldur’s Gate, Baldur’s Gate II, MDK2, Neverwinter Nights, Star Wars: Knights of the Old Republic, and Jade Empire. In later date they created the original Mass Effect trilogy, as well as being the creator and ongoing developer of the Dragon Age series.",//images.igdb.com/igdb/image/upload/t_thumb/l0rp1hf3tnappazfzz9n.jpg,"['Mass Effect', 'Mass Effect 2', 'Mass Effect 3']","['PC (Microsoft Windows)', 'PlayStation 3', 'Xbox 360', 'Wii U', 'PlayStation Network']",222
Ruffian Games,N/A,['http://www.ruffiangames.com/'],N/A,N/A,N/A,[],[],1359
Nintendo EAD Group No. 2,2003-09-29,N/A,Nintendo EAD,N/A,N/A,"['Animal Crossing: Wild World', 'Animal Crossing: New Leaf', 'Animal Crossing: City Folk']","['Wii', 'Nintendo DS', 'Nintendo 3DS', 'Wii U']",1246
Criterion Games,1993-12-30,['http://www.criteriongames.com/'],Electronic Arts,"Criterion Games (officially called Criterion Software) is a British video game developer based in Guildford, Surrey that are best known for their work on the award-winning racing video game series Burnout and various Need for Speed games.",//images.igdb.com/igdb/image/upload/t_thumb/gdmwtbmabnwf6ajcssci.jpg,[],[],347
Rockstar Games,N/A,['http://www.rockstargames.com/'],Take-Two Interactive,N/A,//images.igdb.com/igdb/image/upload/t_thumb/wcqgg7udjjtzxjsqfnfi.jpg,"['Grand Theft Auto III', 'Grand Theft Auto IV', 'Grand Theft Auto 2', 'Grand Theft Auto', 'Grand Theft Auto V']","['PC (Microsoft Windows)', 'PlayStation', 'PlayStation 2', 'PlayStation 3', 'Xbox', 'Xbox 360', 'PC DOS', 'Mac', 'Game Boy Color', 'Dreamcast', 'Android', 'iOS', 'PlayStation 4', 'Xbox One']",29
Certain Affinity,N/A,['https://www.certainaffinity.com/'],N/A,N/A,//images.igdb.com/igdb/image/upload/t_thumb/cl217.jpg,[],[],57
Pandemic Studios,1998-12-30,N/A,Electronic Arts,N/A,//images.igdb.com/igdb/image/upload/t_thumb/ziqycyajcrnqh8hyibmk.jpg,"['Star Wars: Battlefront', 'Star Wars: Battlefront II']","['PC (Microsoft Windows)', 'PlayStation 2', 'Xbox', 'Mac', 'PlayStation Portable']",63
LucasArts,1990-12-30,['http://lucasfilm.com/games'],The Walt Disney Company,"With titles on consoles, PCs, and mobile devices, LucasArts endeavors to deliver experiences — whether it’s piloting a snowspeeder in the Battle of Hoth or slinging Jedi Birds at Sith Pigs — that are not possible in any other medium, and dazzle fans with stunning graphics, engaging storytelling, and fun gameplay. Continually pushing the art form forward, LucasArts leverages the global skills, technology, and resources of its family of companies, in addition to strategic partnerships, to further the boundaries of gaming.",//images.igdb.com/igdb/image/upload/t_thumb/ktmvlzpc7quw9rjui0qq.jpg,"['Star Wars: Battlefront', 'Star Wars: Battlefront II']","['PC (Microsoft Windows)', 'PlayStation 2', 'Xbox', 'Mac', 'PlayStation Portable']",10
CD Projekt RED,2002-01-31,['http://cdpred.com/'],CD Projekt,"CD Projekt Red - a Polish video game developer, established in 2002 as a subsidiary of CD Projekt (the first company of this name, now CDP). The studio belonged to the holding CDP Investment, which was later merged with Optimus. The company's registered office was located in Warsaw. As part of the subsequent numerous transformations of the parent company, CD Projekt Red became a legal subsidiary of CD Projekt SA (until November 2012 CD Projekt Red SA).",//images.igdb.com/igdb/image/upload/t_thumb/cl2dk.jpg,['The Witcher 3: Wild Hunt'],"['PC (Microsoft Windows)', 'PlayStation 4', 'Xbox One']",908
NVIDIA Lightspeed Studios,N/A,N/A,N/A,N/A,N/A,['Half-Life 2'],"['Linux', 'PC (Microsoft Windows)', 'PlayStation 3', 'Xbox', 'Xbox 360', 'Mac', 'Android']",22994
Demiurge Studios,2002-12-30,['http://demiurgestudios.com/'],(Archive) Sega Games - duplicate,"Demiurge Studios makes mobile, console, and PC games featuring deep systems and memorable characters. Try our hit mobile game, Marvel Puzzle Quest!Creating games is our passion. Founded in 2002, we joined SEGA Networks’ family of studios in early 2015. We bring years of development expertise to our original projects, Shoot Many Robots, Marvel Puzzle Quest, and Puzzle &amp; Glory. Based in Cambridge, MA, our developers have worked with partners around the globe on titles such as Bioshock, Borderlands, and Mass Effect.",//images.igdb.com/igdb/image/upload/t_thumb/sx8dqxm2nkjmdr5aqjv1.jpg,[],[],13
Aspyr Media,1996-03-30,['http://www.aspyr.com/'],N/A,Aspyr Media specializes in porting video games from Microsoft Windows to OS X and Linux.,//images.igdb.com/igdb/image/upload/t_thumb/pobzcae4758zn2bz3yy1.jpg,['Borderlands 2'],"['Linux', 'PC (Microsoft Windows)', 'PlayStation 3', 'Xbox 360', 'Mac', 'Android', 'PlayStation Vita', 'PlayStation 4']",73
Atari,1972-03-30,N/A,N/A,N/A,//images.igdb.com/igdb/image/upload/t_thumb/b0bv0naux50nfsas5yht.jpg,"['RollerCoaster Tycoon 3', 'RollerCoaster Tycoon', 'RollerCoaster Tycoon 2']","['PC (Microsoft Windows)', 'Xbox', 'Mac', 'iOS']",82
Valve Corporation,1996-08-23,"['http://www.valvesoftware.com/', 'https://www.valvesoftware.com']",N/A,"Valve's debut title, Half-Life, was released in 1998. It won more than 50 game of the year awards, and PC Gamer even called it the Best PC Game Ever. Since then, we've released dozens of titles that changed the world. Today, millions of people play our games every day.",//images.igdb.com/igdb/image/upload/t_thumb/cl2he.jpg,"['Portal', 'Portal 2', 'Half-Life', 'Half-Life 2', 'Portal', 'Portal 2', 'Half-Life', 'Half-Life 2']","['Linux', 'PC (Microsoft Windows)', 'PlayStation 2', 'PlayStation 3', 'Xbox', 'Xbox 360', 'Mac', 'Android', 'Xbox Live Arcade']",56
Pi Studios,N/A,N/A,N/A,"Pi Studios was a computer game software developer founded in 2002 by Robert Erwin, John Faulkenbury, Rob Heironimus, Dan Kramer and Peter Mack whose first commercial work can be found in Activision's Call of Duty: United Offensive. The company originated in Plano, Texas and relocated to Houston, Texas in January, 2005. In November, 2005, Pi Studios released Call of Duty 2: Big Red One for the PlayStation 2, the Xbox, and the GameCube. Work on that project was done jointly with Activision's internal studio, Treyarch. This led to work on Call of Duty 3 in October 2006, developed jointly with Treyarch. Pi's work on the Call of Duty franchise continued with the Call of Duty 3 Bravo Map Pack (downloadable via Xbox Live Arcade) followed by Call of Duty: World at War, in which they assisted Treyarch in creating the single player mission ""Blowtorch and Corkscrew"". Pi Studios helped develop the Halo 2 Vista editing toolset and exclusive multiplayer map content, which was included with the game. Pi Studios also developed Mercenaries 2: World in Flames on PlayStation 2 which was released in the United States on August 31, 2008 and in Europe on September 5, 2008. Pi Studios is responsible for the PlayStation 2 and Wii versions of Rock Band, which shipped December 18, 2007 and June 22, 2008 respectively. These were developed in conjunction with Harmonix. Pi Studios also worked with Harmonix to produce four Rock Band Track Packs for the Wii and PlayStation 2. The two companies' final collaborative effort was on The Beatles: Rock Band for the (Wii), released in 2009. Bomberman Live: Battlefest for Xbox Live Arcade, released in December 2010. Pi Studios was developing Bonk: Brink of Extinction for release on Xbox Live Arcade, PlayStation 3 and Wii but it was cancelled. In March 2011, it was announced that Pi Studios was closed as former employees have now formed a new development team called Category 6 Studios, which currently has around 15 members including co-founder and industry veteran Kenn Hoekstra.",//images.igdb.com/igdb/image/upload/t_thumb/cl20l.jpg,[],[],362
Infogrames,1983-06-14,N/A,N/A,"Infogrames Entertainment, SA  was an international French holding company headquartered in Lyon, France. Owner of Atari inc. and Atari Europe along with numerous other companies and studios. Through its subsidiaries, the company published games for every major video game platform.Infogrames Entertainment, SA renamed itself in 2009 after its subsidiary Atari inc. to Atari, SA.",N/A,['RollerCoaster Tycoon 2'],['PC (Microsoft Windows)'],213
FromSoftware,1986-10-31,['http://www.fromsoftware.jp/'],N/A,N/A,//images.igdb.com/igdb/image/upload/t_thumb/irwmnrvf0hny5wr0ap0d.jpg,"['Dark Souls', 'Dark Souls II', 'Dark Souls III', 'Dark Souls II', 'Dark Souls III']","['PC (Microsoft Windows)', 'PlayStation 3', 'Xbox 360', 'PlayStation 4', 'Xbox One']",1012
CyberFront,N/A,N/A,Kaga Create,CyberFront Corporation (株式会社サイバーフロント kabushiki gaisha saibaafuronto) was a console and computer game developer.,//images.igdb.com/igdb/image/upload/t_thumb/bjpreh2lvoyzsvhq24r9.jpg,['Borderlands'],"['PC (Microsoft Windows)', 'PlayStation 3', 'Xbox 360', 'Mac']",74
Raven Software,1990-12-30,['http://www.ravensoftware.com/'],Activision,"Raven Software is a market-leading and award-winning video game developer based in Middleton, Wisconsin. Since its inception in 1990, Raven's core has always been centered on visual excellence and exciting gameplay. With this focus, Raven has established a stability that few in the ever-changing video game industry have been able to achieve. As new technologies and trends continue to develop, Raven remains dedicated to surpassing new levels of quality in electronic gaming.",//images.igdb.com/igdb/image/upload/t_thumb/nfdwrfcz3jjgkcpkt8oy.jpg,['Call of Duty: Ghosts'],"['PC (Microsoft Windows)', 'PlayStation 3', 'Xbox 360', 'Wii U', 'PlayStation 4', 'Xbox One']",71
Microsoft Studios,2011-12-30,N/A,Microsoft,Established in 2002 as Microsoft Game Studios to coincide with the release of the Xbox. It was re-branded in 2011 to Microsoft Studios.,//images.igdb.com/igdb/image/upload/t_thumb/bu9r3zhigouwaywz5mqc.jpg,"['Halo 4', 'Halo 5: Guardians']","['Xbox 360', 'Xbox One']",1010
Gearbox Software,1999-02-15,['http://www.gearboxsoftware.com/'],N/A,"The diverse and passionate members of the Gearbox Software team share a common identity – we feel we were made to set our time and talent towards bringing joy, fun and happiness to our customers through our craft.Since its inception and our first release, Half-Life: Opposing Force, the talented developers at Gearbox Software have had the pleasure of creating video games for some of the most exciting and revered brands on the planet. The Gearbox Software team has also created original, owned and managed brands including the award winning, best-selling Brothers in Arms series and the record-setting, genre breaking Borderlands franchise. In addition, Gearbox Software has acquired other major video game properties including the Duke Nukem and Homeworld brands. With all of its owned franchises, the people of Gearbox Software enjoy driving and managing a deep portfolio of licensed and internally produced ancillary products including video games, comic books, action figures, apparel, art prints, fictional novels, non-fiction reference books, and linear media content for film and television.Ultimately, Gearbox Software is a family of talented, inventive and passionate individuals who want to collaborate with smart, committed, capable people with a quality of character that seek to inspire and be inspired – that care about creativity, happiness and the desire to make wonderful, engaging and exciting things that our customers feel is very valuable so that we may learn the lessons of experience together and share together in the rewards from a job well done.",//images.igdb.com/igdb/image/upload/t_thumb/ljte8d4doak68etvocdc.jpg,"['Borderlands', 'Borderlands 2', 'Borderlands 3']","['Linux', 'PC (Microsoft Windows)', 'PlayStation 3', 'Xbox 360', 'Mac', 'Android', 'PlayStation Vita', 'PlayStation 4', 'Xbox One', 'Google Stadia']",148
Bandai Namco Entertainment,2015-03-31,['http://bandainamcoent.co.jp/english/'],N/A,"Bandai and NAMCO have both fundamentally been entertainment companies. By combining and enhancing Bandai's expertise in character merchandizing and NAMCO's creative strengths through the new BANDAI NAMCO Entertainment, we will provide a new level of sophistication in entertainment.",//images.igdb.com/igdb/image/upload/t_thumb/m3mj346jzlrjwhtdven7.jpg,"['The Witcher 3: Wild Hunt', 'Dark Souls', 'Dark Souls II', 'Dark Souls III']","['PC (Microsoft Windows)', 'PlayStation 3', 'Xbox 360', 'PlayStation 4', 'Xbox One']",248
WB Games,1993-12-30,['https://community.wbgames.com'],N/A,"WB Games, also known as Warner Bros. Interactive Entertainment, is a division of Warner Bros. Most notably known for their Batman, Injustice, Middle-earth, Mortal Kombat, and LEGO games.",//images.igdb.com/igdb/image/upload/t_thumb/g9tnegvapwh3rr78xhjd.jpg,['The Witcher 3: Wild Hunt'],"['PC (Microsoft Windows)', 'PlayStation 4', 'Xbox One']",50
Infinity Ward,2002-12-30,['http://www.infinityward.com'],N/A,"Founded in 2002, Infinity Ward is the original studio behind the Call of Duty franchise.The titles developed by Infinity Ward have won over 200 ""Game of the Year"" awards and 100 ""Editor's Choice"" awards, among many other industry accolades. In 2007, the studio released Call of Duty 4: Modern Warfare, a revolutionary title that set the bar for the modern first-person shooter. Infinity Ward is located in Woodland Hills, California, just outside of Los Angeles. A critically-acclaimed studio, Infinity Ward is proud to have one of the most passionate and accomplished development teams in the industry. We love to have as much fun as the games we create, and it shows in our relaxed, yet diligent workplace environment.",//images.igdb.com/igdb/image/upload/t_thumb/s84xfwhavmhchneqxdxs.jpg,"['Call of Duty', 'Call of Duty: Ghosts', 'Call Of Duty: Modern Warfare']","['PC (Microsoft Windows)', 'PlayStation 3', 'Xbox 360', 'Mac', 'Wii U', 'PlayStation 4', 'Xbox One']",438
Electronic Arts,1982-05-27,['http://www.ea.com/'],N/A,"Electronic Arts Inc. is a leading global interactive entertainment software company. EA delivers games, content and online services for Internet-connected consoles, personal computers, mobile phones and tablets.",//images.igdb.com/igdb/image/upload/t_thumb/i9s3h5sqtvzisfwik1za.jpg,"['Mass Effect', 'Mass Effect 2', 'Mass Effect 3', 'Star Wars: Battlefront II', 'Star Wars Battlefront II']","['PC (Microsoft Windows)', 'PlayStation 2', 'PlayStation 3', 'Xbox', 'Xbox 360', 'PlayStation Portable', 'Wii U', 'PlayStation Network', 'PlayStation 4', 'Xbox One']",1
Square Enix,2003-03-31,['http://www.square-enix.com/'],N/A,"Square Enix develops, publishes, distributes and licenses Square Enix, Eidos and Taito branded entertainment content in Europe and other PAL territories as part of the Square Enix group of companies. Square Enix also has a global network of leading development studios such as Crystal Dynamics and Eidos Montréal. The Square Enix group of companies boasts a valuable portfolio of intellectual property including: Final Fantasy, which has sold over 130 million units worldwide; Dragon Quest, which has sold over 71 million units worldwide; Tomb Raider, which has sold over 58 million units worldwide; and the legendary Space Invaders.",//images.igdb.com/igdb/image/upload/t_thumb/yqsot4fytthxblnyvcia.jpg,"['Call of Duty: Black Ops', 'Call of Duty: Black Ops II']","['Wii', 'PC (Microsoft Windows)', 'PlayStation 3', 'Xbox 360', 'Nintendo DS', 'Wii U']",26
Bungie,1991-04-30,['https://www.bungie.net/'],N/A,"Bungie was founded in 1991 with two goals: develop kick ass games that combine state-of-the-art technology with uncompromising art, captivating storytelling, and deep gameplay, and then to sell enough copies to fund their ongoing quest for World Domination. Over the past twenty years, Bungie created a bunch of fun games, including the Halo Franchise, the Marathon Trilogy, and the first two Myth games. Now independent, employee-owned, and located in Bellevue, Washington.",//images.igdb.com/igdb/image/upload/t_thumb/ilbokq37gwre4gwgklii.jpg,"['Halo 2', 'Halo 3', 'Halo 3: ODST']","['PC (Microsoft Windows)', 'Xbox', 'Xbox 360', 'Xbox One']",620
505 Games,2006-12-30,['http://www.505games.com/'],N/A,"505 Games is a global video game publisher focused on offering a broad selection of titles for players of all ages and levels. The company publishes and distributes premium and free-to-play games on leading console, PC and handheld platforms as well as for mobile devices and social networks. 505 Games has offices in California, United Kingdom, France, Germany, Italy, Spain and China.",//images.igdb.com/igdb/image/upload/t_thumb/w63e5lsq8x7a2trotymv.jpg,['Cooking Mama 3: Shop & Chop'],['Nintendo DS'],445
Activision,1979-09-30,['http://www.activision.com/'],Activision Blizzard,"For more than 30 years, Activision has been changing the way people play.  In the process, we have built one of the largest portfolios of recognized brands and today we are one of the most valuable interactive entertainment companies in the world.Founded in 1979 as the first independent video game software developer and distributor, the company launched a series of multi-million unit selling titles in the early 1980s for the Atari 2600 including Pitfall, Kaboom! and River Raid.   And since then, Activision has created some of the most iconic and memorable game experiences of all time.",//images.igdb.com/igdb/image/upload/t_thumb/i7pmwdmzp21xrceoqmlc.jpg,"['Star Wars: Battlefront II', 'Call of Duty: Black Ops', 'Call of Duty', 'Call of Duty 3', 'Call of Duty: Black Ops II', 'Call of Duty: Ghosts', 'Call of Duty: Black Ops III', 'Call Of Duty: Modern Warfare']","['Wii', 'PC (Microsoft Windows)', 'PlayStation 2', 'PlayStation 3', 'Xbox', 'Xbox 360', 'Mac', 'Nintendo DS', 'PlayStation Portable', 'Wii U', 'PlayStation 4', 'Xbox One']",66
1C Company,1991-03-30,N/A,N/A,N/A,//images.igdb.com/igdb/image/upload/t_thumb/bdkcmdv9rujnqrumonqt.jpg,['The Witcher 3: Wild Hunt'],"['PC (Microsoft Windows)', 'PlayStation 4', 'Xbox One']",157
2K Games,2005-01-24,['https://www.2k.com/'],Take-Two Interactive,"2K Games is the main publishing company for Take-Two Interactive, created the day after they acquired the rights for the 2K sports series from Sega along with the purchase of the companies Visual Concepts and Kush Games. Almost all development studios owned by Take-Two are listed as subsidiaries through 2K Games, or its publishing divisions 2K Sports and 2K Play. ""2K is a videogame publisher managing some of the most creative, respected and premium brands in games today. Founded in 2005 within Take Two Interactive, 2K develops and publishes interactive entertainment for PC, console and mobile platforms.""",//images.igdb.com/igdb/image/upload/t_thumb/dvjspyvdishtdwdkabu6.jpg,"['Borderlands', 'Borderlands 2', 'Borderlands 3']","['Linux', 'PC (Microsoft Windows)', 'PlayStation 3', 'Xbox 360', 'Mac', 'Android', 'PlayStation Vita', 'PlayStation 4', 'Xbox One', 'Google Stadia']",8
Sierra Entertainment,1979-03-30,N/A,N/A,N/A,//images.igdb.com/igdb/image/upload/t_thumb/qabsh3mdevjsww3erojx.jpg,"['Half-Life', 'Half-Life 2']","['Linux', 'PC (Microsoft Windows)', 'PlayStation 2', 'PlayStation 3', 'Xbox', 'Xbox 360', 'Mac', 'Android']",24
Nintendo,1916-09-22,['http://www.nintendo.com/'],N/A,"Nintendo Co., Ltd. is a multinational corporation located in Kyoto, Japan. Founded on September 23, 1889 by Fusajiro Yamauchi, it produced handmade hanafuda cards. By 1963, the company had tried several small niche businesses, such as a cab company and a love hotel. Nintendo developed into a video game company, becoming one of the most influential in the industry and Japan's third most valuable listed company, with a market value of over US$85 billion. Besides video games, Nintendo is also the majority owner of the Seattle Mariners, a Major League Baseball team in Seattle, Washington. According to Nintendo's Touch! Generations website, the name ""Nintendo"" translated from Japanese to English means ""Leave luck to Heaven"".",//images.igdb.com/igdb/image/upload/t_thumb/tglfbjdfbwjs6twvz6ga.jpg,"['Animal Crossing: New Horizons', 'Pokémon Pearl', 'Pokémon Gold', 'Pokémon FireRed', 'Pokémon Red', 'Animal Crossing: Wild World', 'Animal Crossing', 'Animal Crossing: New Leaf', 'Animal Crossing: City Folk', 'Pokémon Black Version 2', 'Cooking Mama 5: Bon Appétit!', 'Animal Crossing: New Horizons']","['Wii', 'Nintendo DS', 'Nintendo GameCube', 'Game Boy Color', 'Game Boy Advance', 'Game Boy', 'Nintendo 3DS', 'Wii U', 'Virtual Console (Nintendo)', 'Nintendo Switch']",70
Cooking Mama Limited,N/A,N/A,N/A,N/A,N/A,['Cooking Mama 5: Bon Appétit!'],['Nintendo 3DS'],1439
Nintendo EAD,1980-12-30,N/A,Nintendo,"Nintendo Entertainment Analysis & Development or Nintendo EAD, formerly Nintendo Research & Development 4, or Nintendo R&D4, was the largest division inside Nintendo until it merged with Nintendo Software Planning & Development in September 2015, becoming Nintendo Entertainment Planning & Development. It was preceded by the Creative Department (クリエイティブ課 Kurieitibu Ka?), a team of designers with backgrounds in art responsible for many different tasks, to which Shigeru Miyamoto and Takashi Tezuka originally belonged. Both served as managers of the EAD studios and were credited in every game developed by the division, with varying degrees of involvement. Nintendo EAD was best known for its work on games in the Donkey Kong, Mario, The Legend of Zelda, F-Zero, Star Fox, Pikmin, and Animal Crossing series.",//images.igdb.com/igdb/image/upload/t_thumb/apiicbbk1cjgwsrtypxl.jpg,['Animal Crossing'],['Nintendo GameCube'],421
Hasbro Interactive,N/A,N/A,N/A,N/A,N/A,['RollerCoaster Tycoon'],"['PC (Microsoft Windows)', 'Xbox']",183
Take-Two Interactive,1993-12-30,['http://www.take2games.com/'],N/A,"Headquartered in New York City, Take-Two Interactive Software, Inc. is a leading developer, marketer and publisher of interactive entertainment for consumers around the globe. The Company develops and publishes products through its two wholly-owned labels Rockstar Games and 2K. Our products are designed for console systems, handheld gaming systems and personal computers, including smartphones and tablets, and are delivered through physical retail, digital download, online platforms and cloud streaming services. The Company’s common stock is publicly traded on NASDAQ under the symbol TTWO.",//images.igdb.com/igdb/image/upload/t_thumb/aqtxrprtkcftl7m8yn0t.jpg,"['Borderlands', 'Grand Theft Auto III', 'Grand Theft Auto IV', 'Grand Theft Auto 2', 'Grand Theft Auto', 'Grand Theft Auto V']","['PC (Microsoft Windows)', 'PlayStation', 'PlayStation 2', 'PlayStation 3', 'Xbox', 'Xbox 360', 'PC DOS', 'Mac', 'Game Boy Color', 'Dreamcast', 'Android', 'iOS', 'PlayStation 4', 'Xbox One']",139
Feral Interactive,1996-12-30,['https://www.feralinteractive.com'],N/A,"We are a publishing company set up in 1996 with a mission to bring great games to the Mac. Since then, we have not only established ourselves as a world-leading publisher of Mac games but of Linux games as well. We enjoy close relationships with developers and publishers such as 2K, SEGA, Square Enix, TT Games, Codemasters, Creative Assembly, Warner Bros. Interactive Entertainment and Io-Interactive. We’re based in London, England, but we deliver our titles to gamers all over the world thanks to the marvel that is digital download. One of our key aims is to have fun; we work with people we like, publish games that we enjoy and try not to be too corporate with our website. We hope you like our taste, but if there’s a game you’d like to see on the Mac or on Linux we’d love to hear from you.",//images.igdb.com/igdb/image/upload/t_thumb/vzihco0vqpbr5xqurqbf.jpg,['Borderlands'],"['PC (Microsoft Windows)', 'PlayStation 3', 'Xbox 360', 'Mac']",23
Microsoft Game Studios,2001-12-31,N/A,Microsoft,N/A,//images.igdb.com/igdb/image/upload/t_thumb/nbgp6nfrvm9j7zr5uarc.jpg,"['Portal', 'Mass Effect', 'Halo 2', 'Halo 3', 'Halo 3: ODST']","['Linux', 'PC (Microsoft Windows)', 'PlayStation 3', 'Xbox', 'Xbox 360', 'Mac', 'Xbox Live Arcade', 'PlayStation Network', 'Xbox One']",53