[
  {
    "id": 3,
    "abbreviation": "Linux",
    "alternative_name": "GNU/Linux",
    "category": 4,
    "created_at": 1297555200,
    "name": "Linux",
    "platform_logo": 33,
    "product_family": 4,
    "slug": "linux",
    "summary": "Linux is a free and open-source (FOSS/FLOSS) Operating System. In a more precise and complex definition, Linux is an open-source OS kernel on which a large variety of Operating Systems (known as Linux distributions) are built.",
    "updated_at": 1392940800,
    "url": "https://www.igdb.com/platforms/linux",
    "versions": [
      44
    ],
    "websites": [
      1
    ]
  },
  {
    "id": 6,
    "abbreviation": "PC",
    "alternative_name": "mswin",
    "category": 4,
    "created_at": 1297555200,
    "name": "PC (Microsoft Windows)",
    "platform_logo": 203,
    "slug": "win",
    "updated_at": 1470009600,
    "url": "https://www.igdb.com/platforms/win",
    "versions": [
      1,
      13,
      14,
      15,
      124
    ],
    "websites": [
      2
    ]
  },
  {
    "id": 7,
    "abbreviation": "PS1",
    "category": 1,
    "created_at": 1297555200,
    "generation": 5,
    "name": "PlayStation",
    "platform_logo": 278,
    "product_family": 1,
    "slug": "ps",
    "updated_at": 1392076800,
    "url": "https://www.igdb.com/platforms/ps",
    "versions": [
      57
    ]
  },
  {
    "id": 8,
    "abbreviation": "PS2",
    "alternative_name": "PS2",
    "category": 1,
    "created_at": 1297555200,
    "generation": 6,
    "name": "PlayStation 2",
    "platform_logo": 254,
    "product_family": 1,
    "slug": "ps2",
    "updated_at": 1414972800,
    "url": "https://www.igdb.com/platforms/ps2",
    "versions": [
      58,
      114
    ]
  },
  {
    "id": 9,
    "abbreviation": "PS3",
    "category": 1,
    "created_at": 1297555200,
    "generation": 7,
    "name": "PlayStation 3",
    "platform_logo": 79,
    "product_family": 1,
    "slug": "ps3",
    "updated_at": 1391558400,
    "url": "https://www.igdb.com/platforms/ps3",
    "versions": [
      4,
      5,
      6
    ],
    "websites": [
      3
    ]
  },
  {
    "id": 39,
    "abbreviation": "iOS",
    "category": 4,
    "created_at": 1317686400,
    "name": "iOS",
    "platform_logo": 248,
    "slug": "ios",
    "updated_at": 1391644800,
    "url": "https://www.igdb.com/platforms/ios",
    "versions": [
      43
    ]
  },
  {
    "id": 170,
    "abbreviation": "Stadia",
    "alternative_name": "Stadia",
    "category": 3,
    "created_at": 1565222400,
    "name": "Google Stadia",
    "platform_logo": 328,
    "slug": "stadia",
    "updated_at": 1574294400,
    "url": "https://www.igdb.com/platforms/stadia",
    "versions": [
      285
    ],
    "websites": [
      37
    ]
  },
  {
    "id": 11,
    "abbreviation": "XBOX",
    "category": 1,
    "created_at": 1297555200,
    "generation": 6,
    "name": "Xbox",
    "platform_logo": 266,
    "product_family": 2,
    "slug": "xbox",
    "updated_at": 1392076800,
    "url": "https://www.igdb.com/platforms/xbox",
    "versions": [
      77
    ]
  },
  {
    "id": 12,
    "abbreviation": "X360",
    "alternative_name": "xbx360",
    "category": 1,
    "created_at": 1297555200,
    "generation": 7,
    "name": "Xbox 360",
    "platform_logo": 250,
    "product_family": 2,
    "slug": "xbox360",
    "summary": "Xbox 360 brings you a total games and entertainment experience. The largest library of games, including titles that get you right into the thick of it with Kinect. Plus, your whole family can watch HD movies, TV shows, live events, music, sports and more—across all your devices. Xbox 360 is the center of your games and entertainment universe.",
    "updated_at": 1392854400,
    "url": "https://www.igdb.com/platforms/xbox360",
    "versions": [
      2,
      3,
      83
    ],
    "websites": [
      4
    ]
  },
  {
    "id": 48,
    "abbreviation": "PS4",
    "alternative_name": "PS4",
    "category": 1,
    "created_at": 1326499200,
    "generation": 8,
    "name": "PlayStation 4",
    "platform_logo": 231,
    "product_family": 1,
    "slug": "ps4--1",
    "summary": "The PlayStation 4 system opens the door to an incredible journey through immersive new gaming worlds and a deeply connected gaming community. PS4 puts gamers first with an astounding launch line-up and over 180 games in development. Play amazing top-tier blockbusters and innovative indie hits on PS4. Developer inspired, gamer focused.",
    "updated_at": 1433116800,
    "url": "https://www.igdb.com/platforms/ps4--1",
    "versions": [
      17,
      178,
      179
    ],
    "websites": [
      11
    ]
  },
  {
    "id": 36,
    "abbreviation": "xla",
    "category": 3,
    "created_at": 1317600000,
    "name": "Xbox Live Arcade",
    "platform_logo": 19,
    "product_family": 2,
    "slug": "xla",
    "updated_at": 1391904000,
    "url": "https://www.igdb.com/platforms/xla",
    "versions": [
      31
    ],
    "websites": [
      8
    ]
  },
  {
    "id": 45,
    "abbreviation": "psn",
    "alternative_name": "PSN",
    "category": 3,
    "created_at": 1318118400,
    "name": "PlayStation Network",
    "platform_logo": 321,
    "product_family": 1,
    "slug": "psn",
    "updated_at": 1391904000,
    "url": "https://www.igdb.com/platforms/psn",
    "versions": [
      32
    ]
  },
  {
    "id": 46,
    "abbreviation": "Vita",
    "alternative_name": "PS Vita",
    "category": 5,
    "created_at": 1321660800,
    "generation": 8,
    "name": "PlayStation Vita",
    "platform_logo": 232,
    "product_family": 1,
    "slug": "psvita",
    "updated_at": 1552780800,
    "url": "https://www.igdb.com/platforms/psvita",
    "versions": [
      60,
      274,
      275
    ],
    "websites": [
      34
    ]
  },
  {
    "id": 47,
    "abbreviation": "VC",
    "category": 3,
    "created_at": 1326240000,
    "name": "Virtual Console (Nintendo)",
    "platform_logo": 202,
    "product_family": 5,
    "slug": "vc",
    "updated_at": 1514678400,
    "url": "https://www.igdb.com/platforms/vc",
    "versions": [
      71
    ]
  },
  {
    "id": 14,
    "abbreviation": "Mac",
    "alternative_name": "Mac OS",
    "category": 4,
    "created_at": 1297641600,
    "name": "Mac",
    "platform_logo": 100,
    "slug": "mac",
    "updated_at": 1394236800,
    "url": "https://www.igdb.com/platforms/mac",
    "versions": [
      45,
      141,
      142,
      143,
      144,
      145,
      146,
      147,
      148,
      149,
      150,
      151
    ],
    "websites": [
      5
    ]
  },
  {
    "id": 34,
    "abbreviation": "Android",
    "alternative_name": "Infocusa3",
    "category": 4,
    "created_at": 1302566400,
    "name": "Android",
    "platform_logo": 195,
    "slug": "android",
    "updated_at": 1556150400,
    "url": "https://www.igdb.com/platforms/android",
    "versions": [
      7,
      8,
      9,
      10,
      11,
      12,
      236,
      237,
      238,
      239
    ],
    "websites": [
      7
    ]
  },
  {
    "id": 5,
    "abbreviation": "Wii",
    "alternative_name": "Revolution",
    "category": 1,
    "created_at": 1297555200,
    "generation": 7,
    "name": "Wii",
    "platform_logo": 326,
    "product_family": 5,
    "slug": "wii",
    "updated_at": 1565136000,
    "url": "https://www.igdb.com/platforms/wii",
    "versions": [
      72,
      283
    ]
  },
  {
    "id": 22,
    "abbreviation": "GBC",
    "category": 5,
    "created_at": 1300147200,
    "generation": 5,
    "name": "Game Boy Color",
    "platform_logo": 273,
    "slug": "gbc",
    "updated_at": 1392076800,
    "url": "https://www.igdb.com/platforms/gbc",
    "versions": [
      41
    ]
  },
  {
    "id": 23,
    "abbreviation": "DC",
    "category": 1,
    "created_at": 1300147200,
    "generation": 6,
    "name": "Dreamcast",
    "platform_logo": 270,
    "slug": "dc",
    "updated_at": 1392076800,
    "url": "https://www.igdb.com/platforms/dc",
    "versions": [
      16
    ]
  },
  {
    "id": 33,
    "abbreviation": "Game Boy",
    "category": 5,
    "created_at": 1302307200,
    "generation": 4,
    "name": "Game Boy",
    "platform_logo": 274,
    "product_family": 5,
    "slug": "gb",
    "updated_at": 1475625600,
    "url": "https://www.igdb.com/platforms/gb",
    "versions": [
      39,
      181,
      182
    ]
  },
  {
    "id": 13,
    "abbreviation": "DOS",
    "category": 4,
    "created_at": 1297641600,
    "name": "PC DOS",
    "platform_logo": 38,
    "slug": "dos",
    "updated_at": 1392076800,
    "url": "https://www.igdb.com/platforms/dos",
    "versions": [
      56
    ]
  },
  {
    "id": 38,
    "abbreviation": "PSP",
    "alternative_name": "PSP",
    "category": 5,
    "created_at": 1317600000,
    "generation": 7,
    "name": "PlayStation Portable",
    "platform_logo": 214,
    "product_family": 1,
    "slug": "psp",
    "updated_at": 1552780800,
    "url": "https://www.igdb.com/platforms/psp",
    "versions": [
      59,
      276,
      277,
      278,
      279
    ]
  },
  {
    "id": 24,
    "abbreviation": "GBA",
    "alternative_name": "GBA",
    "category": 5,
    "created_at": 1300147200,
    "generation": 6,
    "name": "Game Boy Advance",
    "platform_logo": 255,
    "product_family": 5,
    "slug": "gba",
    "updated_at": 1471478400,
    "url": "https://www.igdb.com/platforms/gba",
    "versions": [
      40,
      193,
      194
    ]
  },
  {
    "id": 41,
    "abbreviation": "WiiU",
    "category": 1,
    "created_at": 1317686400,
    "generation": 8,
    "name": "Wii U",
    "platform_logo": 239,
    "product_family": 5,
    "slug": "wiiu",
    "updated_at": 1489968000,
    "url": "https://www.igdb.com/platforms/wiiu",
    "versions": [
      73
    ],
    "websites": [
      10
    ]
  },
  {
    "id": 37,
    "abbreviation": "3DS",
    "alternative_name": "3DS",
    "category": 5,
    "created_at": 1317600000,
    "generation": 8,
    "name": "Nintendo 3DS",
    "platform_logo": 240,
    "product_family": 5,
    "slug": "3ds",
    "updated_at": 1473984000,
    "url": "https://www.igdb.com/platforms/3ds",
    "versions": [
      50
    ],
    "websites": [
      9
    ]
  },
  {
    "id": 130,
    "abbreviation": "Switch",
    "alternative_name": "NX",
    "category": 1,
    "created_at": 1465948800,
    "generation": 8,
    "name": "Nintendo Switch",
    "platform_logo": 227,
    "product_family": 5,
    "slug": "switch",
    "updated_at": 1550534400,
    "url": "https://www.igdb.com/platforms/switch",
    "versions": [
      173
    ],
    "websites": [
      16
    ]
  },
  {
    "id": 49,
    "abbreviation": "XONE",
    "alternative_name": "Xbone",
    "category": 1,
    "created_at": 1326499200,
    "generation": 8,
    "name": "Xbox One",
    "product_family": 2,
    "slug": "xboxone",
    "summary": "Welcome to a new generation of games and entertainment. Where games push the boundaries of realism. And television obeys your every command. Where listening to music while playing a game is a snap. And you can jump from TV to movies to music to a game in an instant. Where your experience is custom tailored to you. And the entertainment you love is all in one place. Welcome to the all-in-one, Xbox One",
    "updated_at": 1429920000,
    "url": "https://www.igdb.com/platforms/xboxone",
    "versions": [
      78,
      180,
      185,
      188
    ],
    "websites": [
      12
    ]
  },
  {
    "id": 21,
    "abbreviation": "NGC",
    "alternative_name": "Dolphin",
    "category": 1,
    "created_at": 1297987200,
    "generation": 6,
    "name": "Nintendo GameCube",
    "platform_logo": 262,
    "slug": "ngc",
    "updated_at": 1565136000,
    "url": "https://www.igdb.com/platforms/ngc",
    "versions": [
      54,
      121,
      125
    ]
  },
  {
    "id": 20,
    "abbreviation": "NDS",
    "alternative_name": "DS",
    "category": 5,
    "created_at": 1297900800,
    "generation": 7,
    "name": "Nintendo DS",
    "platform_logo": 245,
    "product_family": 5,
    "slug": "nds",
    "updated_at": 1502668800,
    "url": "https://www.igdb.com/platforms/nds",
    "versions": [
      52,
      190,
      191,
      192
    ]
  }
]